each_appointment_commission,each_referral_commission,employed_data,level,notification,user_id
10,20,2021-06-13 12:34:00,1,TRUE,1
10,20,2021-06-13 12:34:00,1,TRUE,2
10,20,2019-10-11 12:34:00,1,TRUE,3
10,20,2019-03-06 12:34:00,1,TRUE,4
10,20,2018-12-24 12:34:00,1,TRUE,5
10,20,2019-04-25 12:34:00,1,TRUE,6
10,20,2019-06-30 12:34:00,1,TRUE,7
10,20,2020-07-18 12:34:00,1,TRUE,8
10,20,2019-07-27 12:34:00,1,TRUE,9
20,40,2020-06-28 12:34:00,2,TRUE,10
20,40,2020-03-08 12:34:00,2,TRUE,11
20,40,2019-02-19 12:34:00,2,TRUE,12
20,40,2018-09-19 12:34:00,2,TRUE,13
20,40,2020-07-02 12:34:00,2,TRUE,14
20,40,2020-02-13 12:34:00,2,TRUE,15
20,40,2020-01-15 12:34:00,2,TRUE,16
20,40,2020-05-02 12:34:00,2,TRUE,17
20,40,2019-09-14 12:34:00,2,TRUE,18
20,40,2019-03-06 12:34:00,2,TRUE,19
20,40,2019-05-25 12:34:00,2,TRUE,20
20,40,2020-06-08 12:34:00,2,TRUE,21
20,40,2019-12-13 12:34:00,2,TRUE,22
20,40,2019-10-25 12:34:00,2,TRUE,23
20,40,2020-02-15 12:34:00,2,TRUE,24
20,40,2020-01-21 12:34:00,2,TRUE,25
20,40,2020-08-07 12:34:00,2,TRUE,26
20,40,2020-08-16 12:34:00,2,TRUE,27
20,40,2021-04-15 12:34:00,2,TRUE,28
20,40,2021-03-08 12:34:00,2,TRUE,29
20,40,2019-06-04 12:34:00,2,TRUE,30
20,40,2019-03-25 12:34:00,2,TRUE,31
20,40,2018-10-01 12:34:00,2,TRUE,32
20,40,2020-12-01 12:34:00,2,TRUE,33
20,40,2020-08-14 12:34:00,2,TRUE,34
20,40,2019-10-27 12:34:00,2,TRUE,35
20,40,2018-11-09 12:34:00,2,TRUE,36
40,80,2018-12-20 12:34:00,3,TRUE,37
40,80,2019-10-17 12:34:00,3,TRUE,38
40,80,2019-11-15 12:34:00,3,TRUE,39
40,80,2020-01-07 12:34:00,3,TRUE,40
40,80,2019-02-12 12:34:00,3,TRUE,41
40,80,2020-04-16 12:34:00,3,TRUE,42
40,80,2020-01-29 12:34:00,3,TRUE,43
40,80,2019-04-27 12:34:00,3,TRUE,44
40,80,2020-02-21 12:34:00,3,TRUE,45
40,80,2020-07-18 12:34:00,3,TRUE,46
40,80,2020-05-26 12:34:00,3,TRUE,47
40,80,2018-10-12 12:34:00,3,TRUE,48
40,80,2020-09-04 12:34:00,3,TRUE,49
40,80,2020-11-18 12:34:00,3,TRUE,50
40,80,2020-02-13 12:34:00,3,TRUE,51
40,80,2020-11-15 12:34:00,3,TRUE,52
40,80,2019-06-16 12:34:00,3,TRUE,53
40,80,2021-05-14 12:34:00,3,TRUE,54
40,80,2020-09-19 12:34:00,3,TRUE,55
40,80,2020-03-28 12:34:00,3,TRUE,56
40,80,2019-05-31 12:34:00,3,TRUE,57
40,80,2020-05-30 12:34:00,3,TRUE,58
40,80,2021-05-26 12:34:00,3,TRUE,59
40,80,2021-05-02 12:34:00,3,TRUE,60
40,80,2019-11-14 12:34:00,3,TRUE,61
40,80,2019-03-24 12:34:00,3,TRUE,62
40,80,2018-12-24 12:34:00,3,TRUE,63
40,80,2019-03-30 12:34:00,3,TRUE,64
40,80,2021-04-13 12:34:00,3,TRUE,65
40,80,2020-10-13 12:34:00,3,TRUE,66
40,80,2018-11-26 12:34:00,3,TRUE,67
40,80,2019-10-11 12:34:00,3,TRUE,68
40,80,2020-01-01 12:34:00,3,TRUE,69
40,80,2019-10-14 12:34:00,3,TRUE,70
40,80,2019-06-13 12:34:00,3,TRUE,71
40,80,2020-06-15 12:34:00,3,TRUE,72
40,80,2020-09-16 12:34:00,3,TRUE,73
40,80,2020-09-30 12:34:00,3,TRUE,74
40,80,2019-11-17 12:34:00,3,TRUE,75
40,80,2019-06-02 12:34:00,3,TRUE,76
40,80,2020-08-05 12:34:00,3,TRUE,77
40,80,2019-04-10 12:34:00,3,TRUE,78
40,80,2018-11-15 12:34:00,3,TRUE,79
40,80,2021-02-09 12:34:00,3,TRUE,80
40,80,2019-08-22 12:34:00,3,TRUE,81
40,80,2019-11-03 12:34:00,3,TRUE,82
40,80,2021-04-05 12:34:00,3,TRUE,83
40,80,2020-04-18 12:34:00,3,TRUE,84
40,80,2020-07-15 12:34:00,3,TRUE,85
40,80,2019-04-21 12:34:00,3,TRUE,86
40,80,2019-06-21 12:34:00,3,TRUE,87
40,80,2019-03-25 12:34:00,3,TRUE,88
40,80,2019-07-10 12:34:00,3,TRUE,89
40,80,2019-02-18 12:34:00,3,TRUE,90
40,80,2020-10-08 12:34:00,3,TRUE,91
40,80,2021-02-08 12:34:00,3,TRUE,92
40,80,2021-01-03 12:34:00,3,TRUE,93
40,80,2019-02-22 12:34:00,3,TRUE,94
40,80,2021-06-11 12:34:00,3,TRUE,95
40,80,2020-10-15 12:34:00,3,TRUE,96
40,80,2018-10-16 12:34:00,3,TRUE,97
40,80,2020-07-10 12:34:00,3,TRUE,98
40,80,2020-03-28 12:34:00,3,TRUE,99
40,80,2021-04-20 12:34:00,3,TRUE,100