benefit_amount,purchase_amount,remaining_amount,customer_id,treatment_id
2,5,4,4,23
2,3,2,8,2
2,6,4,4,11
1,6,3,4,10
1,5,3,5,30
2,6,4,3,5
1,4,3,5,16
2,7,4,7,13
2,3,2,7,23
1,6,4,9,6
1,3,2,6,14
2,2,1,8,10
2,8,5,10,12
2,4,2,5,14
2,3,2,1,13
1,6,4,2,8
1,2,1,3,8
2,4,3,8,21
2,4,1,8,2
2,4,3,6,24
2,5,2,7,1
1,5,2,9,16
1,4,3,4,27
2,7,4,8,2
1,5,4,2,5
2,4,1,9,26
2,2,1,2,13
1,7,5,1,6
1,7,5,9,15
1,3,1,5,11
1,5,3,7,26
2,3,2,2,16
2,5,4,8,19
2,3,2,3,14
1,5,4,8,24
1,5,2,8,5
1,8,5,3,10
1,6,3,8,21
2,3,2,8,22
2,5,2,1,6
2,4,1,4,14
2,7,5,1,19
1,5,3,7,8
1,3,1,4,22
2,5,3,2,13
2,8,5,9,5
1,3,1,10,16
2,6,5,6,23
1,5,2,1,16
2,5,3,6,12
1,4,2,5,30
1,3,2,9,23
2,5,3,7,12
2,5,2,5,22
1,3,2,10,1
1,6,4,1,8
1,5,2,4,10
2,7,5,4,7
2,5,3,1,1
2,4,3,8,17
2,5,4,5,9
1,3,2,3,13
1,4,2,7,4
1,4,3,10,6
2,4,3,4,21
2,4,1,1,22
1,5,3,2,15
2,4,2,5,8
2,6,3,2,30
1,5,3,6,2
1,7,4,6,20
1,3,2,5,30
2,7,5,5,30
2,4,3,1,23
2,6,3,2,9
2,7,4,5,20
2,4,2,3,3
2,5,4,8,11
1,4,2,5,7
1,7,4,2,19
1,5,4,6,30
2,6,4,6,10
2,7,4,4,22
1,2,1,1,13
1,4,3,1,13
1,4,2,2,5
1,8,5,3,1
1,4,2,5,18
2,4,2,4,1
2,6,3,8,7
1,4,1,9,21
2,7,4,7,20
2,2,1,7,2
2,7,4,3,24
2,6,3,8,25
2,3,2,8,1
2,3,1,1,13
1,6,4,9,2
2,3,2,3,16
1,5,3,8,9
1,6,3,7,4
2,5,4,1,1
2,5,3,1,5
1,6,5,10,13
1,3,2,4,2
1,3,2,3,6
1,6,3,10,9
2,5,4,7,21
1,6,5,10,5
2,6,3,4,19
2,4,3,7,21
1,5,4,7,21
2,7,5,8,12
2,3,1,1,19
1,8,5,7,16
2,6,5,8,30
1,4,2,6,23
2,5,2,6,9
2,7,5,9,23
1,3,1,3,5
1,2,1,8,15
1,3,1,5,26
1,4,1,6,10
2,4,3,10,10
2,3,1,5,3
1,2,1,10,1
1,3,2,7,17
2,7,5,8,9
2,6,3,2,17
2,7,5,5,24
1,5,3,3,27
2,4,2,10,19
2,5,3,6,3
1,5,4,6,18
1,4,1,3,5
2,5,3,5,5
1,5,4,8,20
2,7,4,8,18
1,6,4,8,22
2,4,3,10,16
2,6,3,1,10
2,5,4,1,21
1,4,3,8,17
2,5,2,3,8
1,6,5,7,30
1,6,5,6,5
1,4,3,10,10
2,5,3,1,7
2,3,1,6,20
2,5,4,10,2
1,6,3,7,15
2,7,5,2,2
2,5,2,9,25
1,5,4,8,25
1,4,3,9,25
1,5,2,5,22
1,6,3,3,11
1,3,2,8,27
1,6,4,1,22
2,5,4,10,11
1,6,4,5,13
1,4,1,3,27
2,6,3,5,3
1,6,4,2,29
2,7,4,6,30
1,4,2,6,28
2,6,5,6,22
2,7,4,5,20
1,5,4,7,4
1,6,5,9,23
2,6,5,4,8
1,2,1,6,2
1,8,5,10,15
1,7,5,5,24
1,2,1,6,28
2,4,1,7,30
1,7,4,10,12
1,8,5,3,9
2,7,5,8,14
1,5,4,9,23
2,7,5,6,21
2,3,1,1,28
2,7,5,10,18
2,5,2,5,12
2,7,4,1,2
1,6,3,5,29
2,4,2,10,15
1,4,3,9,19
1,6,5,2,4
1,6,3,8,4
1,2,1,6,30
1,7,4,4,26
2,3,1,5,17
2,5,3,7,17
1,3,2,6,21
2,6,4,9,1
2,6,4,3,1
2,5,2,7,23
2,7,4,6,24
1,2,1,10,9