create_time,points,remark,update_time,agent_id,joined_customer_id
2020-03-13 22:59:18,20,,2020-03-13 22:59:18,1,101
2020-03-14 22:59:18,20,,2020-03-14 22:59:18,1,102
2020-03-15 22:59:18,20,,2020-03-15 22:59:18,1,103
2020-03-16 22:59:18,20,,2020-03-16 22:59:18,1,104
2020-03-17 22:59:18,20,,2020-03-17 22:59:18,1,105
2020-03-18 22:59:18,20,,2020-03-18 22:59:18,1,106
2020-03-19 22:59:18,20,,2020-03-19 22:59:18,1,107
2020-03-20 22:59:18,20,,2020-03-20 22:59:18,1,108
2020-03-21 22:59:18,20,,2020-03-21 22:59:18,1,109
2020-03-22 22:59:18,20,,2020-03-22 22:59:18,1,110
2020-03-23 22:59:18,20,,2020-03-23 22:59:18,1,111
2020-03-24 22:59:18,20,,2020-03-24 22:59:18,1,112
2020-03-25 22:59:18,20,,2020-03-25 22:59:18,1,113
2020-03-26 22:59:18,20,,2020-03-26 22:59:18,1,114
2020-03-27 22:59:18,20,,2020-03-27 22:59:18,1,115
2020-03-28 22:59:18,20,,2020-03-28 22:59:18,1,116
2020-03-29 22:59:18,20,,2020-03-29 22:59:18,1,117
2020-03-30 22:59:18,20,,2020-03-30 22:59:18,1,118
2020-03-31 22:59:18,20,,2020-03-31 22:59:18,1,119
2020-04-01 22:59:18,20,,2020-04-01 22:59:18,1,120
2021-04-02 22:59:18,20,,2021-04-02 22:59:18,1,121
2021-04-03 22:59:18,20,,2021-04-03 22:59:18,1,122
2021-04-04 22:59:18,20,,2021-04-04 22:59:18,1,123
2021-04-05 22:59:18,20,,2021-04-05 22:59:18,1,124
2021-04-06 22:59:18,20,,2021-04-06 22:59:18,1,125
2021-04-07 22:59:18,20,,2021-04-07 22:59:18,1,126
2021-04-08 22:59:18,20,,2021-04-08 22:59:18,1,127
2021-04-09 22:59:18,20,,2021-04-09 22:59:18,1,128
2021-04-10 22:59:18,20,,2021-04-10 22:59:18,1,129
2021-04-11 22:59:18,20,,2021-04-11 22:59:18,1,130
2021-04-12 22:59:18,20,,2021-04-12 22:59:18,1,131
2021-04-13 22:59:18,20,,2021-04-13 22:59:18,1,132
2021-04-14 22:59:18,20,,2021-04-14 22:59:18,1,133
2021-04-15 22:59:18,20,,2021-04-15 22:59:18,1,134
2021-04-16 22:59:18,20,,2021-04-16 22:59:18,1,135
2021-04-17 22:59:18,20,,2021-04-17 22:59:18,1,136
2021-04-18 22:59:18,20,,2021-04-18 22:59:18,1,137
2021-04-19 22:59:18,20,,2021-04-19 22:59:18,1,138
2021-06-01 22:59:18,20,,2021-06-01 22:59:18,1,139
2021-06-02 22:59:18,20,,2021-06-02 22:59:18,1,140
2021-06-03 22:59:18,20,,2021-06-03 22:59:18,1,141
2021-06-04 22:59:18,20,,2021-06-04 22:59:18,1,142
2021-06-05 22:59:18,20,,2021-06-05 22:59:18,1,143
2021-06-06 22:59:18,20,,2021-06-06 22:59:18,1,144
2021-06-07 22:59:18,20,,2021-06-07 22:59:18,1,145
2021-06-08 22:59:18,20,,2021-06-08 22:59:18,1,146
2021-06-09 22:59:18,20,,2021-06-09 22:59:18,1,147
2021-06-10 22:59:18,20,,2021-06-10 22:59:18,1,148
2021-06-11 22:59:18,20,,2021-06-11 22:59:18,1,149
2021-06-12 22:59:18,20,,2021-06-12 22:59:18,1,150
2021-06-13 22:59:18,20,,2021-06-13 22:59:18,1,151
2021-05-03 22:59:18,20,,2021-05-03 22:59:18,1,152
2021-05-04 22:59:18,20,,2021-05-04 22:59:18,1,153
2021-05-05 22:59:18,20,,2021-05-05 22:59:18,1,154
2021-05-06 22:59:18,20,,2021-05-06 22:59:18,1,155
2021-05-07 22:59:18,20,,2021-05-07 22:59:18,1,156
2021-05-08 22:59:18,20,,2021-05-08 22:59:18,1,157
2021-05-09 22:59:18,20,,2021-05-09 22:59:18,1,158
2020-05-10 22:59:18,20,,2020-05-10 22:59:18,2,159
2020-05-11 22:59:18,20,,2020-05-11 22:59:18,2,160
2020-05-12 22:59:18,20,,2020-05-12 22:59:18,2,161
2020-05-13 22:59:18,20,,2020-05-13 22:59:18,2,162
2020-05-14 22:59:18,20,,2020-05-14 22:59:18,2,163
2020-05-15 22:59:18,20,,2020-05-15 22:59:18,2,164
2020-05-16 22:59:18,20,,2020-05-16 22:59:18,2,165
2020-05-17 22:59:18,20,,2020-05-17 22:59:18,2,166
2021-05-18 22:59:18,20,,2021-05-18 22:59:18,2,167
2021-05-19 22:59:18,20,,2021-05-19 22:59:18,2,168
2021-05-20 22:59:18,20,,2021-05-20 22:59:18,2,169
2021-05-21 22:59:18,20,,2021-05-21 22:59:18,2,170
2021-05-22 22:59:18,20,,2021-05-22 22:59:18,2,171
2021-05-23 22:59:18,20,,2021-05-23 22:59:18,2,172
2021-05-24 22:59:18,20,,2021-05-24 22:59:18,2,173
2021-05-25 22:59:18,20,,2021-05-25 22:59:18,2,174
2021-05-26 22:59:18,20,,2021-05-26 22:59:18,2,175
2021-05-27 22:59:18,20,,2021-05-27 22:59:18,2,176
2021-05-28 22:59:18,20,,2021-05-28 22:59:18,2,177
2021-05-29 22:59:18,20,,2021-05-29 22:59:18,2,178
2021-05-30 22:59:18,20,,2021-05-30 22:59:18,2,179
2021-05-31 22:59:18,20,,2021-05-31 22:59:18,2,180
2021-06-01 22:59:18,20,,2021-06-01 22:59:18,2,181
2021-06-02 22:59:18,20,,2021-06-02 22:59:18,2,182
2021-06-03 22:59:18,20,,2021-06-03 22:59:18,2,183
2020-06-04 22:59:18,20,,2020-06-04 22:59:18,3,184
2020-06-05 22:59:18,20,,2020-06-05 22:59:18,3,185
2020-06-06 22:59:18,20,,2020-06-06 22:59:18,3,186
2020-06-07 22:59:18,20,,2020-06-07 22:59:18,3,187
2020-06-08 22:59:18,20,,2020-06-08 22:59:18,3,188
2020-06-09 22:59:18,20,,2020-06-09 22:59:18,3,189
2020-06-10 22:59:18,20,,2020-06-10 22:59:18,3,190
2020-06-11 22:59:18,20,,2020-06-11 22:59:18,3,191
2020-06-12 22:59:18,20,,2020-06-12 22:59:18,3,192
2020-06-13 22:59:18,20,,2020-06-13 22:59:18,3,193
2021-05-14 22:59:18,20,,2021-05-14 22:59:18,3,194
2021-05-15 22:59:18,20,,2021-05-15 22:59:18,3,195
2021-05-16 22:59:18,20,,2021-05-16 22:59:18,3,196
2021-05-17 22:59:18,20,,2021-05-17 22:59:18,3,197
2021-05-18 22:59:18,20,,2021-05-18 22:59:18,3,198
2021-05-19 22:59:18,20,,2021-05-19 22:59:18,3,199
2021-05-20 22:59:18,20,,2021-05-20 22:59:18,3,200
2021-05-21 22:59:18,20,,2021-05-21 22:59:18,3,201
2021-06-22 22:59:18,20,,2021-06-22 22:59:18,3,202
2021-06-23 22:59:18,20,,2021-06-23 22:59:18,3,203
2021-06-24 22:59:18,20,,2021-06-24 22:59:18,3,204
2021-06-25 22:59:18,20,,2021-06-25 22:59:18,3,205
2021-06-26 22:59:18,20,,2021-06-26 22:59:18,3,206
2021-06-27 22:59:18,20,,2021-06-27 22:59:18,3,207
2021-06-28 22:59:18,20,,2021-06-28 22:59:18,3,208
2020-05-10 22:59:18,20,,2020-05-10 22:59:18,4,209
2020-05-11 22:59:18,20,,2020-05-11 22:59:18,4,210
2020-05-12 22:59:18,20,,2020-05-12 22:59:18,4,211
2020-05-13 22:59:18,20,,2020-05-13 22:59:18,4,212
2020-05-14 22:59:18,20,,2020-05-14 22:59:18,4,213
2020-05-15 22:59:18,20,,2020-05-15 22:59:18,4,214
2020-05-16 22:59:18,20,,2020-05-16 22:59:18,4,215
2020-05-17 22:59:18,20,,2020-05-17 22:59:18,4,216
2020-07-07 22:59:18,20,,2020-07-07 22:59:18,4,217
2020-07-08 22:59:18,20,,2020-07-08 22:59:18,4,218
2020-07-09 22:59:18,20,,2020-07-09 22:59:18,4,219
2020-07-10 22:59:18,20,,2020-07-10 22:59:18,4,220
2020-07-11 22:59:18,20,,2020-07-11 22:59:18,4,221
2020-07-12 22:59:18,20,,2020-07-12 22:59:18,4,222
2020-07-13 22:59:18,20,,2020-07-13 22:59:18,4,223
2020-05-14 22:59:18,20,,2020-05-14 22:59:18,4,224
2020-05-15 22:59:18,20,,2020-05-15 22:59:18,4,225
2020-05-16 22:59:18,20,,2020-05-16 22:59:18,4,226
2020-05-17 22:59:18,20,,2020-05-17 22:59:18,4,227
2020-05-18 22:59:18,20,,2020-05-18 22:59:18,4,228
2020-05-19 22:59:18,20,,2020-05-19 22:59:18,4,229
2020-05-20 22:59:18,20,,2020-05-20 22:59:18,4,230
2020-05-21 22:59:18,20,,2020-05-21 22:59:18,4,231
2020-05-22 22:59:18,20,,2020-05-22 22:59:18,4,232
2020-05-23 22:59:18,20,,2020-05-23 22:59:18,4,233
2020-05-24 22:59:18,20,,2020-05-24 22:59:18,5,234
2020-05-25 22:59:18,20,,2020-05-25 22:59:18,5,235
2020-05-26 22:59:18,20,,2020-05-26 22:59:18,5,236
2020-05-27 22:59:18,20,,2020-05-27 22:59:18,5,237
2020-05-28 22:59:18,20,,2020-05-28 22:59:18,5,238
2020-05-29 22:59:18,20,,2020-05-29 22:59:18,5,239
2020-05-30 22:59:18,20,,2020-05-30 22:59:18,5,240
2020-05-31 22:59:18,20,,2020-05-31 22:59:18,5,241
2020-06-01 22:59:18,20,,2020-06-01 22:59:18,5,242
2021-06-02 22:59:18,20,,2021-06-02 22:59:18,5,243
2021-06-03 22:59:18,20,,2021-06-03 22:59:18,5,244
2021-06-04 22:59:18,20,,2021-06-04 22:59:18,5,245
2021-06-05 22:59:18,20,,2021-06-05 22:59:18,5,246
2021-06-06 22:59:18,20,,2021-06-06 22:59:18,5,247
2021-06-07 22:59:18,20,,2021-06-07 22:59:18,5,248
2021-06-08 22:59:18,20,,2021-06-08 22:59:18,5,249
2021-06-09 22:59:18,20,,2021-06-09 22:59:18,5,250
2021-06-10 22:59:18,20,,2021-06-10 22:59:18,5,251
2021-06-11 22:59:18,20,,2021-06-11 22:59:18,5,252
2021-06-12 22:59:18,20,,2021-06-12 22:59:18,5,253
2021-06-13 22:59:18,20,,2021-06-13 22:59:18,5,254
2021-06-14 22:59:18,20,,2021-06-14 22:59:18,5,255
2021-06-15 22:59:18,20,,2021-06-15 22:59:18,5,256
2021-06-16 22:59:18,20,,2021-06-16 22:59:18,5,257
2021-06-17 22:59:18,20,,2021-06-17 22:59:18,5,258
2021-06-18 22:59:18,20,,2021-06-18 22:59:18,6,259
2021-06-19 22:59:18,20,,2021-06-19 22:59:18,6,260
2021-06-20 22:59:18,20,,2021-06-20 22:59:18,6,261
2021-06-21 22:59:18,20,,2021-06-21 22:59:18,6,262
2021-06-22 22:59:18,20,,2021-06-22 22:59:18,6,263
2021-06-23 22:59:18,20,,2021-06-23 22:59:18,6,264
2020-08-24 22:59:18,20,,2020-08-24 22:59:18,6,265
2020-08-25 22:59:18,20,,2020-08-25 22:59:18,6,266
2020-08-26 22:59:18,20,,2020-08-26 22:59:18,6,267
2020-08-27 22:59:18,20,,2020-08-27 22:59:18,6,268
2020-08-28 22:59:18,20,,2020-08-28 22:59:18,6,269
2020-08-29 22:59:18,20,,2020-08-29 22:59:18,6,270
2020-08-30 22:59:18,20,,2020-08-30 22:59:18,6,271
2020-08-31 22:59:18,20,,2020-08-31 22:59:18,6,272
2020-09-01 22:59:18,20,,2020-09-01 22:59:18,6,273
2020-09-02 22:59:18,20,,2020-09-02 22:59:18,6,274
2020-09-03 22:59:18,20,,2020-09-03 22:59:18,7,275
2020-09-04 22:59:18,20,,2020-09-04 22:59:18,7,276
2020-09-05 22:59:18,20,,2020-09-05 22:59:18,7,277
2020-09-06 22:59:18,20,,2020-09-06 22:59:18,8,278
2020-09-07 22:59:18,20,,2020-09-07 22:59:18,8,279
2020-09-08 22:59:18,20,,2020-09-08 22:59:18,8,280
2020-09-09 22:59:18,20,,2020-09-09 22:59:18,9,281
2020-09-10 22:59:18,20,,2020-09-10 22:59:18,9,282
2020-09-11 22:59:18,20,,2020-09-11 22:59:18,9,283
2021-03-12 22:59:18,20,,2021-03-12 22:59:18,9,284
2021-03-13 22:59:18,20,,2021-03-13 22:59:18,9,285
2021-03-14 22:59:18,20,,2021-03-14 22:59:18,9,286
2021-03-15 22:59:18,20,,2021-03-15 22:59:18,9,287
2021-03-16 22:59:18,20,,2021-03-16 22:59:18,9,288
2021-03-17 22:59:18,20,,2021-03-17 22:59:18,9,289
2021-03-18 22:59:18,20,,2021-03-18 22:59:18,9,290
2021-03-19 22:59:18,40,,2021-03-19 22:59:18,10,291
2021-03-20 22:59:18,40,,2021-03-20 22:59:18,10,292
2021-03-21 22:59:18,40,,2021-03-21 22:59:18,10,293
2021-03-22 22:59:18,40,,2021-03-22 22:59:18,10,294
2021-03-23 22:59:18,40,,2021-03-23 22:59:18,10,295
2021-03-24 22:59:18,40,,2021-03-24 22:59:18,11,296
2021-03-25 22:59:18,40,,2021-03-25 22:59:18,11,297
2021-03-26 22:59:18,40,,2021-03-26 22:59:18,11,298
2021-03-27 22:59:18,40,,2021-03-27 22:59:18,11,299
2021-03-28 22:59:18,40,,2021-03-28 22:59:18,11,300
2021-03-29 22:59:18,40,,2021-03-29 22:59:18,12,301
2021-03-30 22:59:18,40,,2021-03-30 22:59:18,12,302
2021-03-31 22:59:18,40,,2021-03-31 22:59:18,12,303
2021-04-01 22:59:18,40,,2021-04-01 22:59:18,12,304
2021-04-02 22:59:18,40,,2021-04-02 22:59:18,12,305
2021-04-03 22:59:18,40,,2021-04-03 22:59:18,12,306
2021-04-04 22:59:18,40,,2021-04-04 22:59:18,12,307
2021-04-05 22:59:18,40,,2021-04-05 22:59:18,12,308
2021-04-06 22:59:18,40,,2021-04-06 22:59:18,12,309
2021-01-08 22:59:18,40,,2021-01-08 22:59:18,12,310
2021-01-09 22:59:18,40,,2021-01-09 22:59:18,12,311
2021-01-10 22:59:18,40,,2021-01-10 22:59:18,13,312
2021-01-11 22:59:18,40,,2021-01-11 22:59:18,14,313
2021-01-12 22:59:18,40,,2021-01-12 22:59:18,14,314
2021-01-13 22:59:18,40,,2021-01-13 22:59:18,14,315
2021-01-14 22:59:18,40,,2021-01-14 22:59:18,14,316
2021-01-15 22:59:18,40,,2021-01-15 22:59:18,14,317
2021-01-16 22:59:18,40,,2021-01-16 22:59:18,15,318
2021-01-17 22:59:18,40,,2021-01-17 22:59:18,15,319
2021-01-18 22:59:18,40,,2021-01-18 22:59:18,15,320
2021-01-19 22:59:18,40,,2021-01-19 22:59:18,15,321
2021-01-20 22:59:18,40,,2021-01-20 22:59:18,15,322
2021-01-21 22:59:18,40,,2021-01-21 22:59:18,15,323
2021-01-22 22:59:18,40,,2021-01-22 22:59:18,15,324
2021-01-23 22:59:18,40,,2021-01-23 22:59:18,15,325
2021-01-24 22:59:18,40,,2021-01-24 22:59:18,15,326
2021-01-25 22:59:18,40,,2021-01-25 22:59:18,15,327
2021-01-26 22:59:18,40,,2021-01-26 22:59:18,15,328
2021-05-27 22:59:18,40,,2021-05-27 22:59:18,15,329
2021-05-28 22:59:18,40,,2021-05-28 22:59:18,15,330
2021-05-29 22:59:18,40,,2021-05-29 22:59:18,15,331
2021-05-30 22:59:18,40,,2021-05-30 22:59:18,15,332
2021-05-31 22:59:18,40,,2021-05-31 22:59:18,15,333
2021-06-01 22:59:18,40,,2021-06-01 22:59:18,15,334
2021-06-02 22:59:18,40,,2021-06-02 22:59:18,15,335
2021-06-03 22:59:18,40,,2021-06-03 22:59:18,15,336
2021-06-04 22:59:18,40,,2021-06-04 22:59:18,15,337
2021-06-05 22:59:18,40,,2021-06-05 22:59:18,15,338
2021-06-06 22:59:18,40,,2021-06-06 22:59:18,15,339
2021-06-07 22:59:18,40,,2021-06-07 22:59:18,15,340
2021-06-08 22:59:18,40,,2021-06-08 22:59:18,15,341
2021-06-09 22:59:18,40,,2021-06-09 22:59:18,15,342
2021-06-10 22:59:18,40,,2021-06-10 22:59:18,15,343
2021-06-11 22:59:18,40,,2021-06-11 22:59:18,15,344
2021-06-12 22:59:18,40,,2021-06-12 22:59:18,16,345
2021-06-13 22:59:18,40,,2021-06-13 22:59:18,16,346
2021-06-14 22:59:18,40,,2021-06-14 22:59:18,16,347
2021-06-15 22:59:18,40,,2021-06-15 22:59:18,16,348
2021-06-16 22:59:18,40,,2021-06-16 22:59:18,16,349
2021-06-17 22:59:18,40,,2021-06-17 22:59:18,16,350
2021-06-18 22:59:18,40,,2021-06-18 22:59:18,16,351
2021-06-19 22:59:18,40,,2021-06-19 22:59:18,16,352
2021-06-20 22:59:18,40,,2021-06-20 22:59:18,16,353
2021-06-21 22:59:18,40,,2021-06-21 22:59:18,16,354
2021-05-22 22:59:18,40,,2021-05-22 22:59:18,16,355
2021-05-23 22:59:18,40,,2021-05-23 22:59:18,16,356
2021-05-24 22:59:18,40,,2021-05-24 22:59:18,16,357
2021-05-25 22:59:18,40,,2021-05-25 22:59:18,16,358
2021-05-26 22:59:18,40,,2021-05-26 22:59:18,16,359
2021-05-27 22:59:18,40,,2021-05-27 22:59:18,17,360
2021-05-28 22:59:18,40,,2021-05-28 22:59:18,17,361
2021-05-29 22:59:18,40,,2021-05-29 22:59:18,17,362
2021-05-30 22:59:18,40,,2021-05-30 22:59:18,17,363
2021-05-31 22:59:18,40,,2021-05-31 22:59:18,17,364
2021-06-01 22:59:18,40,,2021-06-01 22:59:18,17,365
2021-06-02 22:59:18,40,,2021-06-02 22:59:18,17,366
2021-06-03 22:59:18,40,,2021-06-03 22:59:18,17,367
2021-06-04 22:59:18,40,,2021-06-04 22:59:18,17,368
2021-06-05 22:59:18,40,,2021-06-05 22:59:18,18,369
2021-06-06 22:59:18,40,,2021-06-06 22:59:18,18,370
2021-06-07 22:59:18,40,,2021-06-07 22:59:18,19,371
2021-06-08 22:59:18,40,,2021-06-08 22:59:18,19,372
2021-06-09 22:59:18,40,,2021-06-09 22:59:18,20,373
2021-06-10 22:59:18,40,,2021-06-10 22:59:18,20,374
2021-06-11 22:59:18,40,,2021-06-11 22:59:18,21,375
2021-06-12 22:59:18,40,,2021-06-12 22:59:18,22,376
2021-06-13 22:59:18,40,,2021-06-13 22:59:18,22,377
2021-06-14 22:59:18,40,,2021-06-14 22:59:18,22,378
2021-06-15 22:59:18,40,,2021-06-15 22:59:18,23,379
2021-06-16 22:59:18,40,,2021-06-16 22:59:18,23,380
2021-06-17 22:59:18,40,,2021-06-17 22:59:18,23,381
2021-06-18 22:59:18,40,,2021-06-18 22:59:18,23,382
2021-06-19 22:59:18,40,,2021-06-19 22:59:18,23,383
2021-06-20 22:59:18,40,,2021-06-20 22:59:18,23,384
2021-06-21 22:59:18,40,,2021-06-21 22:59:18,23,385
2021-06-22 22:59:18,40,,2021-06-22 22:59:18,23,386
2021-06-23 22:59:18,40,,2021-06-23 22:59:18,23,387
2021-06-24 22:59:18,40,,2021-06-24 22:59:18,24,388
2021-06-25 22:59:18,40,,2021-06-25 22:59:18,25,389
2021-06-26 22:59:18,40,,2021-06-26 22:59:18,26,390
2021-06-27 22:59:18,40,,2021-06-27 22:59:18,27,391
2021-06-28 22:59:18,40,,2021-06-28 22:59:18,28,392
2021-05-29 22:59:18,40,,2021-05-29 22:59:18,29,393
2021-05-30 22:59:18,40,,2021-05-30 22:59:18,30,394
2021-05-31 22:59:18,40,,2021-05-31 22:59:18,31,395
2021-06-01 22:59:18,40,,2021-06-01 22:59:18,32,396
2021-06-02 22:59:18,40,,2021-06-02 22:59:18,33,397
2021-06-03 22:59:18,40,,2021-06-03 22:59:18,34,398
2021-06-04 22:59:18,40,,2021-06-04 22:59:18,35,399
2021-06-05 22:59:18,40,,2021-06-05 22:59:18,36,400
2021-06-06 22:59:18,80,,2021-06-06 22:59:18,37,401
2021-06-07 22:59:18,80,,2021-06-07 22:59:18,38,402
2021-06-08 22:59:18,80,,2021-06-08 22:59:18,39,403
2021-06-09 22:59:18,80,,2021-06-09 22:59:18,40,404
2021-06-10 22:59:18,80,,2021-06-10 22:59:18,41,405
2021-06-11 22:59:18,80,,2021-06-11 22:59:18,42,406
2021-06-12 22:59:18,80,,2021-06-12 22:59:18,43,407
2021-06-13 22:59:18,80,,2021-06-13 22:59:18,44,408
2021-06-14 22:59:18,80,,2021-06-14 22:59:18,45,409
2021-06-15 22:59:18,80,,2021-06-15 22:59:18,46,410
2021-06-16 22:59:18,80,,2021-06-16 22:59:18,47,411
2021-06-17 22:59:18,80,,2021-06-17 22:59:18,48,412
2021-06-18 22:59:18,80,,2021-06-18 22:59:18,49,413
2021-06-19 22:59:18,80,,2021-06-19 22:59:18,50,414
2021-06-20 22:59:18,80,,2021-06-20 22:59:18,51,415
2021-06-21 22:59:18,80,,2021-06-21 22:59:18,52,416
2021-06-22 22:59:18,80,,2021-06-22 22:59:18,53,417
2021-06-23 22:59:18,80,,2021-06-23 22:59:18,54,418
2021-06-24 22:59:18,80,,2021-06-24 22:59:18,55,419
2021-06-25 22:59:18,80,,2021-06-25 22:59:18,56,420