﻿create_time,default_score,detail,image,is_hidden,purchase_benefit_condition,purchase_benefit_amount,title,update_time
2021-06-21 21:08:00,10,皮膚科醫師自1990年代開始使用肉毒桿菌素來治療皺紋，藉由放鬆臉部肌肉的方式來改善動態性的皺紋，包括皺眉紋、魚尾紋和抬頭紋等。此外，肉毒桿菌素也可以用來治療頸紋、咀嚼肌肥大、國字臉、方型臉，和多汗症等。,tm1.png,FALSE,3,1,肉毒桿菌素注射,2021-06-21 21:08:00
2021-06-21 21:08:00,10,皮膚科醫師專精於毛髮醫學，也是研究各種不同落髮疾病的專家。皮膚科醫師自1950年代起，就開始使用各種植髮技術來改善病患禿頭的問題，包括傳統及微創毛囊單位移植手術、頭皮縮減手術和頭皮皮瓣手術等。,tm2.png,FALSE,3,1,毛髮移植手術,2021-06-21 21:08:00
2021-06-21 21:08:00,10,腋臭是腋窩部位的頂漿腺分泌物，與細菌作用之後的產物，所發出的特殊味道，在天熱多汗時，亦會在淺色衣物留下淡黃色的痕跡。皮膚科醫師會使用藥物、雷射燒灼、微波燒灼、微創旋轉刀刮除手術、抽脂術及傳統汗腺切除術，來治療狐臭。,tm3.png,FALSE,3,1,狐臭,2021-06-21 21:08:00
2021-06-21 21:08:00,10,皮膚的最底層就是皮下脂肪層，所以皮膚科醫師對抽脂是相當有經驗的。自1980年代起，皮膚科醫師利用局部麻醉的方式，也就是膨脹試劑抽脂的技術來移除病患身上局部多餘的脂肪，不但提高抽脂的精確度，也讓抽脂手術更為安全。,tm4.png,FALSE,5,1,抽脂,2021-06-21 21:08:00
2021-06-21 21:08:00,10,不管是青春痘疤、水痘疤、妊娠紋、生長紋或是外傷造成的疤痕，皮膚科醫師會利用各種不同的治療方式來改善疤痕的嚴重度。常見的治療包括雷射磨皮、皮膚移植、化學換膚和修疤手術等，都可以達到一定的效果。,tm5.png,FALSE,5,1,疤痕改善,2021-06-21 21:08:00
2021-06-21 21:08:00,10,靜脈曲張及微血管擴張多發生於臉部或下肢，常造成病患生活上的不適。治療靜脈曲張的方式依嚴重度不同，包括：雷射或脈衝光治療、硬化劑注射、血管內雷射或電波治療、微創靜脈勾取術等。皮膚科醫師，特別擅長使用低侵入性方式來改善惱人的靜脈曲張。,tm6.png,FALSE,5,1,靜脈曲張及微血管擴張,2021-06-21 21:08:00
2021-06-21 21:08:00,10,皮膚科醫師利用各種不同的光療、雷射電燒及冷凍治療，可以去除大部份的老人斑和各種不同的胎記。,tm7.png,FALSE,10,1,老人斑和胎記治療,2021-06-21 21:08:00
2021-06-21 21:08:00,10,雷射磨皮能夠精準的移除皮膚表層細胞，可以有效治療臉部日光性傷害、皮膚角化、表淺細紋、痘疤、雀斑和老人斑等。而非侵入性的回春雷射或脈衝光治療能改善初期的皮膚老化和日光性傷害，他們的能量能深入皮膚真皮層刺激膠原蛋白的增生，讓您的皮膚更年輕緊緻。,tm8.png,FALSE,10,1,雷射磨皮及回春,2021-06-21 21:08:00
2021-06-21 21:08:00,10,雷射光及脈衝光除毛的原理，是使用特定波長的光束穿過表皮，讓毛囊的黑色素吸收能量、產生高溫，進而破壞毛囊的生長來達到去除毛髮的效果。雷射及脈衝光可以有效的去除包括臉部、腋下、手臂、腿部及背部的毛髮，此外，也能夠有效的改善毛髮內生的問題。,tm9.png,FALSE,10,1,雷射及脈衝光除毛,2021-06-21 21:08:00
2021-06-21 21:08:00,10,刺青的移除方式視刺青的顏色、大小和部位而定。不同顏色的刺青需要不同波長的雷射來治療。雷色光將皮膚裡的刺青色素打散之後，再由吞噬細胞將這些色素移除而達到治療的效果。有些刺青也可以經由手術或磨皮方式移除。大多數的刺青需要多次治療才能達到一定效果。,tm10.png,FALSE,10,1,刺青去除,2021-06-21 21:08:00
2021-06-21 21:08:00,10,皮膚科醫師會利用各種特定波長的雷射和光源，例如準分子雷射，來治療以往不易治療、或需要侵入性治療的皮膚疾病，包括有痤瘡、乾癬、酒糟和白斑等。,tm11.png,FALSE,10,1,皮膚疾病的治療：痤瘡、乾癬、酒糟及白斑,2021-06-21 21:08:00
2021-06-21 21:08:00,10,皮膚科醫師在50年前就開始使用各種不同的物質，例如：果酸、杏仁酸、三氯醋酸、苯酚、乳酸、水楊酸等，進行換膚，它能代謝去除老舊的角質，促進健康的皮膚新生。此外，化學換膚可以改善眼周及口周的表淺細紋，也可以治療膚色暗沉和老人斑的問題。,tm12.png,FALSE,10,1,換膚術,2021-06-21 21:08:00
2021-06-21 21:08:00,10,光動力療法利用感光劑、具有特定波長的光線、以及氧分子，感光分子將光轉為能量，傳遞給氧分子，產生活性含氧化物，引起細胞毒殺作用。在皮膚科學的應用，可以治療皮膚癌、日光性角化，也有研究運用在尋常疣、痤瘡、硬皮症等疾病的治療。,tm13.png,FALSE,10,1,光動力療法,2021-06-21 21:08:00
2021-06-21 21:08:00,10,"激光是單一波段的光能, 在同一時間發射, 光線能量較為集中, 能深入皮膚打擊患處之異常色素或血管。有效治療色斑 (雀斑、太陽斑、咖啡斑、太田痣、紋身)、血管問題 (葡萄色斑、微絲血管擴張)、皺紋幼紋、暗瘡疤痕、凹凸洞、膚色不均、皮膚鬆弛、毛孔粗大及去除多餘體毛。治療後皮膚會出現短暫的紅腫, 要注意防曬及遵照醫生指示護理皮膚。",tm14.png,FALSE,20,1,激光治療,2021-06-21 21:08:00
2021-06-21 21:08:00,10,"彩光是在同一時間發出不同波段的光能, 滲透皮膚不同層面, 一次過改善或治療多種不同的皮膚問題。可治療色素 (雀斑、日曬色斑、老人斑)、面上、腋下及腳上的多餘體毛、血管擴張、皮膚粗糙暗啞或膚色不均勻, 並可更生面部及頸部皮膚, 使皮膚潔白幼嫩、緊緻及回復光澤彈性。每次治療只需15-30分鐘, 每隔三至四星期接受一次治療。治療部位會有短暫的紅腫, 但不影響日常生活。要避免過度接觸陽光。",tm15.png,FALSE,20,1,彩光治療,2021-06-21 21:08:00
2021-06-21 21:08:00,10,肉毒桿菌素去皺，肉毒桿菌素瘦面，肉毒桿菌素瘦小腿，玻尿酸去皺及改善面形，果酸換膚,tm16.png,FALSE,20,1,微創醫學美容,2021-06-21 21:08:00
2021-06-21 21:08:00,10," 將熱能輸送到皮膚深處, 使現有的膠原蛋白收緊, 並刺激新的膠原蛋白生長。能顯著收緊輪廓和更新皮膚深處全部三層組織 : 表皮層、真皮層和皮下(脂肪)層的膠原蛋白, 以獲得自然的及看起來更加年輕的外貌。多數人在接受單獨一次的治療後皮膚可獲得一定程度的改善。無創、毋須手術或注射, 即時可恢復社交活動。",tm17.png,FALSE,20,1,單極無線電熱射頻治療,2021-06-21 21:08:00
2021-06-21 21:08:00,10,果酸由天然物質提取而成，利用不同的酸性濃度，配合時間，達到由淺入深的換膚效果。有助分解及除去表皮堆積的老死角質層，持續使用能促使真皮層內彈性纖維及膠原質增加，且有效減退幼紋、美白皮膚、減退色斑、改善色澤、治療暗瘡及改善油脂分泌。酸性濃度較高，故只可由醫生使用。,tm18.png,FALSE,20,1,果酸換膚,2021-06-21 21:08:00
2021-06-21 21:08:00,10,雙眼皮及除眼袋,tm19.png,FALSE,20,1,雙眼皮及除眼袋,2021-06-21 21:08:00
2021-06-21 21:08:00,10,眼簾下垂,tm20.png,FALSE,20,1,眼簾下垂,2021-06-21 21:08:00
2021-06-21 21:08:00,10,鼻形改善,tm21.png,FALSE,20,1,鼻形改善,2021-06-21 21:08:00
2021-06-21 21:08:00,10,隆下巴,tm22.png,FALSE,20,1,隆下巴,2021-06-21 21:08:00
2021-06-21 21:08:00,10,小針輪廓提升,tm23.png,FALSE,20,1,小針輪廓提升,2021-06-21 21:08:00
2021-06-21 21:08:00,10,面部植脂,tm24.png,FALSE,20,1,面部植脂,2021-06-21 21:08:00
2021-06-21 21:08:00,10,兜風耳,tm25.png,FALSE,20,1,兜風耳,2021-06-21 21:08:00
2021-06-21 21:08:00,10,隆胸,tm26.png,FALSE,20,1,隆胸,2021-06-21 21:08:00
2021-06-21 21:08:00,10,乳房提升或縮小,tm27.png,FALSE,20,1,乳房提升或縮小,2021-06-21 21:08:00
2021-06-21 21:08:00,10,乳房重建,tm28.png,FALSE,20,1,乳房重建,2021-06-21 21:08:00
2021-06-21 21:08:00,10,抽脂塑體,tm29.png,FALSE,20,1,抽脂塑體,2021-06-21 21:08:00
2021-06-21 21:08:00,10,拉肚皮,tm30.png,FALSE,20,1,拉肚皮,2021-06-21 21:08:00
2021-06-21 21:08:00,10,去汗腺及臭狐,tm31.png,FALSE,20,1,去汗腺及臭狐,2021-06-21 21:08:00
2021-06-21 21:08:00,10,兔唇裂顎整形手術,tm32.png,FALSE,20,1,兔唇裂顎整形手術,2021-06-21 21:08:00
2021-06-21 21:08:00,10,尿道下裂修復手術,tm33.png,FALSE,20,1,尿道下裂修復手術,2021-06-21 21:08:00
2021-06-21 21:08:00,10,小耳症改善手術,tm34.png,FALSE,20,1,小耳症改善手術,2021-06-21 21:08:00
2021-06-21 21:08:00,10,頭頸腫瘤切除及修復手術,tm35.png,FALSE,20,1,頭頸腫瘤切除及修復手術,2021-06-21 21:08:00
2021-06-21 21:08:00,10,乳癌切除及重建手術,tm36.png,FALSE,20,1,乳癌切除及重建手術,2021-06-21 21:08:00
2021-06-21 21:08:00,10,皮膚癌切除及修復手術,tm37.png,FALSE,20,1,皮膚癌切除及修復手術,2021-06-21 21:08:00
2021-06-21 21:08:00,10,面部創傷、皮膚損傷及燒傷治療,tm38.png,FALSE,20,1,面部創傷、皮膚損傷及燒傷治療,2021-06-21 21:08:00
2021-06-21 21:08:00,10,疤痕治理,tm39.png,FALSE,20,1,疤痕治理,2021-06-21 21:08:00
2021-06-21 21:08:00,10,疤痕修復,tm40.png,FALSE,20,1,疤痕修復,2021-06-21 21:08:00
2021-06-21 21:08:00,10,疤痕增生,tm41.png,FALSE,20,1,疤痕增生,2021-06-21 21:08:00
2021-06-21 21:08:00,10,暗瘡疤痕,tm42.png,FALSE,20,1,暗瘡疤痕,2021-06-21 21:08:00
2021-06-21 21:08:00,10,"冷凍治療主要冶療疣,軟疣,色斑及老人班等疾病。以極端低溫之液態氮直接噴射在患處皮膚組織上, 使其凍傷、受損及脫落, 從而達致治療之目的。",tm43.png,FALSE,5,1,冷凍治療,2021-06-21 21:08:00
2021-06-21 21:08:00,10,"我們注射類固醇的方法, 是一種叫做Dermojet類似的氣槍, 並沒有針嘴, 可治療瘢痕、斑禿及牛皮癬指甲等。",tm44.png,FALSE,5,1,類固醇打針治療,2021-06-21 21:08:00
2021-06-21 21:08:00,10,"一個簡單及方便的測試, 可幫助找出致敏原及斷症接觸性皮膚炎。",tm45.png,FALSE,5,1,皮膚斑點敏感測試,2021-06-21 21:08:00
2021-06-21 21:08:00,10,"找出尋麻疹起因的方法, 由此測試可得知敏感原是什麼。例如 : 塵埃蟎及各種不同的食物。",tm46.png,FALSE,5,1,皮膚點刺試驗,2021-06-21 21:08:00
2021-06-21 21:08:00,10,在皮膚上切除一小部份送去化驗來診斷出病症。,tm47.png,FALSE,5,1,皮膚組織檢查,2021-06-21 21:08:00
2021-06-21 21:08:00,10,紫外光燈可幫助診斷出皮膚及頭皮上的真菌及細菌感染。,tm48.png,FALSE,5,1,紫外光燈檢查,2021-06-21 21:08:00
2021-06-21 21:08:00,10,指甲化驗能提供經由微生物學證實的指甲真菌感染。,tm49.png,FALSE,5,1,指甲化驗,2021-06-21 21:08:00
2021-06-21 21:08:00,10,"是結合刮匙及電灼刀的一種手術,主要用於治療軟疣,雞眼及跖疣等疾病。",tm50.png,FALSE,5,1,電灼治療,2021-06-21 21:08:00