# This file may be used to create an environment using:
# $ conda create --name <env> --file <this file>
# platform: osx-64
appnope=0.1.2=py38hecd8cb5_1001
backcall=0.2.0=pyhd3eb1b0_0
blas=1.0=mkl
ca-certificates=2021.5.30=h033912b_0
certifi=2021.5.30=py38h50d1736_0
click=8.0.1=py38h50d1736_0
cycler=0.10.0=py_2
decorator=5.0.9=pyhd3eb1b0_0
findspark=1.3.0=py_1
freetype=2.10.4=h4cff582_1
intel-openmp=2021.2.0=hecd8cb5_564
ipykernel=5.3.4=py38h5ca1d4c_0
ipython=7.22.0=py38h01d92e1_0
ipython_genutils=0.2.0=pyhd3eb1b0_1
jedi=0.17.0=py38_0
joblib=1.0.1=pyhd8ed1ab_0
jupyter_client=6.1.12=pyhd3eb1b0_0
jupyter_core=4.7.1=py38hecd8cb5_0
kiwisolver=1.3.1=py38h23ab428_0
kmeans-pytorch=0.3=pypi_0
krb5=1.17.1=hddcf347_0
libblas=3.9.0=9_mkl
libcblas=3.9.0=9_mkl
libcxx=10.0.0=1
libedit=3.1.20191231=h1de35cc_1
libffi=3.3=hb1e8313_2
libgfortran=4.0.0=7_5_0_h1a10cd1_22
libgfortran4=7.5.0=h1a10cd1_22
liblapack=3.9.0=9_mkl
libpng=1.6.37=h7cec526_2
libpq=12.2=h051b688_0
libsodium=1.0.18=h1de35cc_0
llvm-openmp=11.1.0=hda6cdc1_1
matplotlib=3.2.2=1
matplotlib-base=3.2.2=py38h1300a51_1
mkl=2021.2.0=hecd8cb5_269
mkl-service=2.3.0=py38h9ed2024_1
mkl_fft=1.3.0=py38h4a7008c_2
mkl_random=1.2.1=py38hb2f4e1b_2
ncurses=6.2=h0a44026_1
numpy=1.20.2=py38h4b4dc7a_0
numpy-base=1.20.2=py38he0bd621_0
openssl=1.1.1k=h0d85af4_0
pandas=1.2.5=py38h23ab428_0
parso=0.8.2=pyhd3eb1b0_0
pexpect=4.8.0=pyhd3eb1b0_3
pickleshare=0.7.5=pyhd3eb1b0_1003
pip=21.1.2=py38hecd8cb5_0
prompt-toolkit=3.0.17=pyh06a4308_0
psycopg2=2.8.5=py38hddc9c9b_0
ptyprocess=0.7.0=pyhd3eb1b0_2
pygments=2.9.0=pyhd3eb1b0_0
pyparsing=2.4.7=pyh9f0ad1d_0
python=3.8.10=h88f2d9e_7
python-dateutil=2.8.1=pyhd3eb1b0_0
python-dotenv=0.18.0=pyhd8ed1ab_0
python_abi=3.8=2_cp38
pytz=2021.1=pyhd3eb1b0_0
pyzmq=20.0.0=py38h23ab428_1
readline=8.1=h9ed2024_0
schedule=1.1.0=pyhd8ed1ab_0
scikit-learn=0.22.1=py38h3dc85bc_1
scipy=1.4.1=py38h38b60c6_3
setuptools=52.0.0=py38hecd8cb5_0
six=1.16.0=pyhd3eb1b0_0
sqlite=3.36.0=hce871da_0
tk=8.6.10=hb0a8c7a_0
tornado=6.1=py38h9ed2024_0
traitlets=5.0.5=pyhd3eb1b0_0
wcwidth=0.2.5=py_0
wheel=0.36.2=pyhd3eb1b0_0
xz=5.2.5=h1de35cc_0
zeromq=4.3.4=h23ab428_0
zlib=1.2.11=h1de35cc_3
